{
    "author_name": "Your name",
    "author_email": "Your address email (eq. you@example.com)",
    "author": "{{cookiecutter.author_name}} <{{cookiecutter.author_email}}>",
    "project_name": "mytemplate",
    "project_slug": "cookiecutter-{{ cookiecutter.project_name.lower().replace('cookiecutter', '').strip().replace(' ', '-') }}",
    "project_summary": "A short description of the project",
    "release_date": "{% now 'local' %}",
    "version": "0.1.0",
    "_extensions": ["jinja2_time.TimeExtension"],
    "_copy_without_render": [
        "cookiecutter.json",
        "{{cookiecutter.project_slug}}"
    ]
}
